…
::: {.cell-output .cell-output-stdout}
```
# A tibble: 1,201 × 6
   entity                     code   year     n country_region        continent
   <chr>                      <chr> <dbl> <dbl> <chr>                 <chr>    
 1 Commonwealth Middle Income <NA>   2016  7.38 <NA>                  <NA>     
 2 Albania                    ALB    2002  8.27 Europe & Central Asia Europe   
 3 Somalia                    SOM    2017 16.5  Sub-Saharan Africa    Africa   
 4 Central Europe             <NA>   2008  1.56 <NA>                  <NA>     
 5 Sao Tome and Principe      STP    1995 15.9  Sub-Saharan Africa    Africa   
 6 Uzbekistan                 UZB    2015  2.11 Europe & Central Asia Asia     
 7 Niger                      NER    2017 15.9  Sub-Saharan Africa    Africa   
 8 Commonwealth Middle Income <NA>   2007 10.1  <NA>                  <NA>     
 9 Cote d'Ivoire              CIV    1995 11.2  Sub-Saharan Africa    Africa   
10 Middle SDI                 <NA>   1990 12.3  <NA>                  <NA>     
# … with 1,191 more rows
```
…
