Indoor Air Analysis
…
# A tibble: 6,060 × 5
   entity      code   year percent_IAP region    
   <chr>       <chr> <dbl>       <dbl> <chr>     
 1 Afghanistan AFG    1990        19.6 South Asia
 2 Afghanistan AFG    1991        19.3 South Asia
 3 Afghanistan AFG    1992        19.5 South Asia
 4 Afghanistan AFG    1993        19.7 South Asia
 5 Afghanistan AFG    1994        19.4 South Asia
 6 Afghanistan AFG    1995        19.6 South Asia
 7 Afghanistan AFG    1996        19.8 South Asia
 8 Afghanistan AFG    1997        19.7 South Asia
 9 Afghanistan AFG    1998        19.0 South Asia
10 Afghanistan AFG    1999        19.9 South Asia
# … with 6,050 more rows
…
